Service is recall at 11/15/2021 12:00:03 AM
Service is recall at 11/15/2021 12:08:23 AM
Service is recall at 11/15/2021 12:16:43 AM
Service is recall at 11/15/2021 12:25:03 AM
Service is recall at 11/15/2021 12:33:23 AM
Service is recall at 11/15/2021 12:41:43 AM
Service is recall at 11/15/2021 12:50:03 AM
Service is recall at 11/15/2021 12:58:23 AM
Service is recall at 11/15/2021 1:06:43 AM
Service is recall at 11/15/2021 1:15:03 AM
Service is recall at 11/15/2021 1:23:23 AM
Service is recall at 11/15/2021 1:31:43 AM
Service is recall at 11/15/2021 1:40:03 AM
Service is recall at 11/15/2021 1:48:23 AM
Service is recall at 11/15/2021 1:56:43 AM
Service is recall at 11/15/2021 2:05:03 AM
Service is recall at 11/15/2021 2:13:23 AM
Service is recall at 11/15/2021 2:21:43 AM
Service is recall at 11/15/2021 2:30:03 AM
Service is recall at 11/15/2021 2:38:23 AM
Service is recall at 11/15/2021 2:46:43 AM
Service is recall at 11/15/2021 2:55:03 AM
Service is recall at 11/15/2021 3:03:23 AM
Service is recall at 11/15/2021 3:11:43 AM
Service is recall at 11/15/2021 3:20:03 AM
Service is recall at 11/15/2021 3:28:23 AM
Service is recall at 11/15/2021 3:36:43 AM
Service is recall at 11/15/2021 3:45:03 AM
Service is recall at 11/15/2021 3:53:23 AM
Service is recall at 11/15/2021 4:01:43 AM
Service is recall at 11/15/2021 12:36:54 PM
Service is recall at 11/15/2021 12:45:14 PM
Service is recall at 11/15/2021 12:53:34 PM
Service is recall at 11/15/2021 1:01:54 PM
Service is recall at 11/15/2021 1:10:14 PM
Service is recall at 11/15/2021 1:18:34 PM
Service is recall at 11/15/2021 1:26:54 PM
Service is recall at 11/15/2021 1:35:14 PM
Service is recall at 11/15/2021 1:43:34 PM
Service is recall at 11/15/2021 1:51:54 PM
Service is recall at 11/15/2021 2:00:14 PM
Service is recall at 11/15/2021 2:08:34 PM
Service is recall at 11/15/2021 2:16:54 PM
Service is recall at 11/15/2021 2:25:14 PM
Service is recall at 11/15/2021 2:33:34 PM
Service is recall at 11/15/2021 2:41:54 PM
Service is recall at 11/15/2021 5:19:10 PM
Service is recall at 11/15/2021 5:27:30 PM
Service is recall at 11/15/2021 5:35:50 PM
Service is recall at 11/15/2021 5:44:10 PM
Service is recall at 11/15/2021 5:52:30 PM
Service is recall at 11/15/2021 6:00:50 PM
Service is recall at 11/15/2021 6:09:10 PM
Service is recall at 11/15/2021 6:17:30 PM
Service is recall at 11/15/2021 6:25:50 PM
Service is recall at 11/15/2021 6:34:10 PM
Service is recall at 11/15/2021 6:42:30 PM
Service is recall at 11/15/2021 6:50:50 PM
Service is recall at 11/15/2021 6:59:10 PM
Service is recall at 11/15/2021 7:07:30 PM
Service is recall at 11/15/2021 7:15:50 PM
Service is recall at 11/15/2021 7:24:10 PM
Service is recall at 11/15/2021 7:32:30 PM
Service is recall at 11/15/2021 7:40:50 PM
Service is recall at 11/15/2021 7:49:10 PM
Service is recall at 11/15/2021 7:57:30 PM
Service is recall at 11/15/2021 8:05:50 PM
Service is recall at 11/15/2021 8:14:10 PM
Service is recall at 11/15/2021 8:22:30 PM
Service is recall at 11/15/2021 8:30:50 PM
Service is recall at 11/15/2021 8:39:10 PM
Service is recall at 11/15/2021 8:47:30 PM
Service is recall at 11/15/2021 8:55:50 PM
Service is recall at 11/15/2021 9:04:10 PM
Service is recall at 11/15/2021 9:12:30 PM
Service is recall at 11/15/2021 9:20:50 PM
Service is recall at 11/15/2021 9:29:10 PM
Service is recall at 11/15/2021 9:37:30 PM
Service is recall at 11/15/2021 9:45:51 PM
Service is recall at 11/15/2021 9:54:11 PM
Service is recall at 11/15/2021 10:02:31 PM
Service is recall at 11/15/2021 10:10:51 PM
Service is recall at 11/15/2021 10:19:11 PM
Service is recall at 11/15/2021 10:27:31 PM
Service is recall at 11/15/2021 10:35:51 PM
Service is recall at 11/15/2021 10:44:11 PM
Service is recall at 11/15/2021 10:52:31 PM
Service is recall at 11/15/2021 11:00:51 PM
Service is recall at 11/15/2021 11:09:11 PM
Service is recall at 11/15/2021 11:17:31 PM
Service is recall at 11/15/2021 11:25:51 PM
Service is recall at 11/15/2021 11:34:11 PM
Service is recall at 11/15/2021 11:42:31 PM
Service is recall at 11/15/2021 11:50:51 PM
Service is recall at 11/15/2021 11:59:11 PM
