Service is recall at 10/24/2021 9:57:35 PM
Service is recall at 10/24/2021 10:05:55 PM
Service is recall at 10/24/2021 10:14:15 PM
Service is recall at 10/24/2021 10:22:35 PM
Service is recall at 10/24/2021 10:30:55 PM
Service is recall at 10/24/2021 10:39:15 PM
Service is recall at 10/24/2021 10:47:35 PM
Service is recall at 10/24/2021 10:55:55 PM
Service is recall at 10/24/2021 11:04:15 PM
Service is recall at 10/24/2021 11:12:35 PM
Service is recall at 10/24/2021 11:20:55 PM
Service is recall at 10/24/2021 11:29:15 PM
Service is recall at 10/24/2021 11:37:35 PM
Service is recall at 10/24/2021 11:45:55 PM
Service is recall at 10/24/2021 11:54:15 PM
