Service is recall at 12/27/2021 12:01:39 AM
Service is recall at 12/27/2021 12:09:58 AM
Service is recall at 12/27/2021 12:18:18 AM
Service is recall at 12/27/2021 12:26:38 AM
Service is recall at 12/27/2021 12:34:58 AM
Service is recall at 12/27/2021 12:43:18 AM
Service is recall at 12/27/2021 12:51:38 AM
Service is recall at 12/27/2021 12:59:58 AM
Service is recall at 12/27/2021 1:08:18 AM
Service is recall at 12/27/2021 1:16:38 AM
Service is recall at 12/27/2021 1:24:58 AM
Service is recall at 12/27/2021 1:33:18 AM
Service is recall at 12/27/2021 1:41:38 AM
Service is recall at 12/27/2021 1:49:58 AM
Service is recall at 12/27/2021 1:58:18 AM
Service is recall at 12/27/2021 2:06:38 AM
Service is recall at 12/27/2021 2:14:58 AM
Service is recall at 12/27/2021 2:23:18 AM
Service is recall at 12/27/2021 2:31:38 AM
Service is recall at 12/27/2021 2:39:58 AM
Service is recall at 12/27/2021 2:48:18 AM
Service is recall at 12/27/2021 2:56:38 AM
Service is recall at 12/27/2021 3:04:58 AM
Service is recall at 12/27/2021 3:13:18 AM
Service is recall at 12/27/2021 3:21:38 AM
Service is recall at 12/27/2021 3:29:58 AM
Service is recall at 12/27/2021 3:38:18 AM
Service is recall at 12/27/2021 3:46:38 AM
Service is recall at 12/27/2021 1:42:05 PM
Service is recall at 12/27/2021 1:50:25 PM
Service is recall at 12/27/2021 1:58:45 PM
Service is recall at 12/27/2021 2:07:05 PM
Service is recall at 12/27/2021 2:15:25 PM
Service is recall at 12/27/2021 2:23:45 PM
Service is recall at 12/27/2021 2:32:05 PM
Service is recall at 12/27/2021 2:40:25 PM
Service is recall at 12/27/2021 2:48:45 PM
Service is recall at 12/27/2021 2:57:05 PM
Service is recall at 12/27/2021 3:05:25 PM
Service is recall at 12/27/2021 3:13:45 PM
Service is recall at 12/27/2021 3:22:05 PM
Service is recall at 12/27/2021 3:30:25 PM
Service is recall at 12/27/2021 3:38:45 PM
Service is recall at 12/27/2021 3:47:05 PM
Service is recall at 12/27/2021 3:55:25 PM
Service is recall at 12/27/2021 4:03:45 PM
Service is recall at 12/27/2021 4:12:05 PM
Service is recall at 12/27/2021 4:20:25 PM
Service is recall at 12/27/2021 4:28:45 PM
Service is recall at 12/27/2021 4:37:05 PM
Service is recall at 12/27/2021 4:45:25 PM
Service is recall at 12/27/2021 4:53:45 PM
Service is recall at 12/27/2021 5:02:05 PM
Service is recall at 12/27/2021 5:10:25 PM
Service is recall at 12/27/2021 5:18:45 PM
Service is recall at 12/27/2021 5:27:05 PM
Service is recall at 12/27/2021 5:35:25 PM
Service is recall at 12/27/2021 5:43:45 PM
Service is recall at 12/27/2021 5:52:05 PM
Service is recall at 12/27/2021 6:00:25 PM
Service is recall at 12/27/2021 6:08:45 PM
Service is recall at 12/27/2021 6:17:05 PM
Service is recall at 12/27/2021 6:25:25 PM
Service is recall at 12/27/2021 6:33:45 PM
Service is recall at 12/27/2021 6:42:05 PM
Service is recall at 12/27/2021 6:50:25 PM
Service is recall at 12/27/2021 6:58:45 PM
Service is recall at 12/27/2021 7:07:05 PM
Service is recall at 12/27/2021 7:15:25 PM
Service is recall at 12/27/2021 7:23:45 PM
Service is recall at 12/27/2021 7:32:05 PM
Service is recall at 12/27/2021 7:40:25 PM
Service is recall at 12/27/2021 7:48:45 PM
Service is recall at 12/27/2021 7:57:05 PM
Service is recall at 12/27/2021 8:05:25 PM
Service is recall at 12/27/2021 8:13:45 PM
Service is recall at 12/27/2021 8:22:05 PM
Service is recall at 12/27/2021 8:30:25 PM
Service is recall at 12/27/2021 8:38:45 PM
Service is recall at 12/27/2021 8:47:05 PM
Service is recall at 12/27/2021 8:55:25 PM
Service is recall at 12/27/2021 9:03:45 PM
Service is recall at 12/27/2021 9:12:05 PM
Service is recall at 12/27/2021 9:20:25 PM
Service is recall at 12/27/2021 9:28:45 PM
Service is recall at 12/27/2021 9:37:05 PM
Service is recall at 12/27/2021 9:45:25 PM
Service is recall at 12/27/2021 9:53:45 PM
Service is recall at 12/27/2021 10:02:05 PM
Service is recall at 12/27/2021 10:10:25 PM
Service is recall at 12/27/2021 10:18:45 PM
Service is recall at 12/27/2021 10:27:05 PM
Service is recall at 12/27/2021 10:35:25 PM
Service is recall at 12/27/2021 10:43:44 PM
Service is recall at 12/27/2021 10:52:04 PM
Service is recall at 12/27/2021 11:00:24 PM
Service is recall at 12/27/2021 11:08:44 PM
Service is recall at 12/27/2021 11:17:04 PM
Service is recall at 12/27/2021 11:25:24 PM
Service is recall at 12/27/2021 11:33:44 PM
Service is recall at 12/27/2021 11:42:04 PM
Service is recall at 12/27/2021 11:50:24 PM
Service is recall at 12/27/2021 11:58:44 PM
