Service is recall at 12/28/2021 12:07:04 AM
Service is recall at 12/28/2021 12:15:24 AM
Service is recall at 12/28/2021 12:23:44 AM
Service is recall at 12/28/2021 12:32:04 AM
Service is recall at 12/28/2021 12:40:24 AM
Service is recall at 12/28/2021 12:48:44 AM
Service is recall at 12/28/2021 12:57:04 AM
Service is recall at 12/28/2021 1:05:24 AM
Service is recall at 12/28/2021 1:13:44 AM
Service is recall at 12/28/2021 1:22:04 AM
Service is recall at 12/28/2021 1:30:24 AM
Service is recall at 12/28/2021 1:38:44 AM
Service is recall at 12/28/2021 1:47:04 AM
Service is recall at 12/28/2021 1:55:24 AM
Service is recall at 12/28/2021 2:03:44 AM
Service is recall at 12/28/2021 2:12:04 AM
Service is recall at 12/28/2021 2:20:24 AM
Service is recall at 12/28/2021 2:28:44 AM
Service is recall at 12/28/2021 2:37:04 AM
Service is recall at 12/28/2021 2:45:24 AM
Service is recall at 12/28/2021 2:53:44 AM
Service is recall at 12/28/2021 3:02:04 AM
Service is recall at 12/28/2021 3:10:24 AM
Service is recall at 12/28/2021 3:18:44 AM
Service is recall at 12/28/2021 3:27:04 AM
Service is recall at 12/28/2021 3:35:24 AM
Service is recall at 12/28/2021 3:43:44 AM
Service is recall at 12/28/2021 3:52:04 AM
Service is recall at 12/28/2021 4:00:24 AM
Service is recall at 12/28/2021 4:08:44 AM
Service is recall at 12/28/2021 8:19:39 PM
Service is recall at 12/28/2021 8:27:59 PM
Service is recall at 12/28/2021 8:36:19 PM
Service is recall at 12/28/2021 8:44:39 PM
Service is recall at 12/28/2021 8:52:59 PM
Service is recall at 12/28/2021 9:01:19 PM
Service is recall at 12/28/2021 9:09:39 PM
Service is recall at 12/28/2021 9:17:59 PM
Service is recall at 12/28/2021 9:26:19 PM
Service is recall at 12/28/2021 9:34:39 PM
Service is recall at 12/28/2021 9:42:59 PM
Service is recall at 12/28/2021 9:51:19 PM
Service is recall at 12/28/2021 9:59:39 PM
Service is recall at 12/28/2021 10:07:59 PM
Service is recall at 12/28/2021 10:16:19 PM
Service is recall at 12/28/2021 10:24:39 PM
Service is recall at 12/28/2021 10:32:59 PM
Service is recall at 12/28/2021 10:41:19 PM
Service is recall at 12/28/2021 10:49:39 PM
Service is recall at 12/28/2021 10:57:59 PM
Service is recall at 12/28/2021 11:06:19 PM
Service is recall at 12/28/2021 11:14:39 PM
Service is recall at 12/28/2021 11:22:59 PM
Service is recall at 12/28/2021 11:31:19 PM
Service is recall at 12/28/2021 11:39:39 PM
Service is recall at 12/28/2021 11:47:59 PM
Service is recall at 12/28/2021 11:56:19 PM
