Service is recall at 12/13/2021 9:36:31 PM
Service is recall at 12/13/2021 9:44:51 PM
Service is recall at 12/13/2021 9:53:11 PM
Service is recall at 12/13/2021 10:01:31 PM
Service is recall at 12/13/2021 10:09:51 PM
Service is recall at 12/13/2021 10:18:11 PM
Service is recall at 12/13/2021 10:26:31 PM
Service is recall at 12/13/2021 10:34:51 PM
Service is recall at 12/13/2021 10:43:11 PM
Service is recall at 12/13/2021 10:51:31 PM
Service is recall at 12/13/2021 10:59:51 PM
Service is recall at 12/13/2021 11:08:11 PM
Service is recall at 12/13/2021 11:16:31 PM
Service is recall at 12/13/2021 11:24:51 PM
Service is recall at 12/13/2021 11:33:11 PM
Service is recall at 12/13/2021 11:41:31 PM
Service is recall at 12/13/2021 11:49:51 PM
Service is recall at 12/13/2021 11:58:11 PM
