Service is stopped at 12/12/2021 4:42:36 AM
Service is started at 12/12/2021 4:42:59 AM
W3CustomerList connection
W3CustomerList connect db
W3CustomerList select db
W3CustomerList select dr
New Invoice 
InvoiceId = [EINVOICE_ID] = ES02021000347808
DocumentId = [UUID]= 0AB6F45F-EC02-1EDC-80B0-DB0789064EA5
CreateDateUtc = 8/20/2021 7:27:22 AM
Type Code = 0
Type = [PROFILE_ID] = BaseInvoice
TargetTcknVkn = [SENDER_TAX_ID] = 3350432123
TargetTitle = [PARTY_NAME] =ENERJİSA BAŞKENT ELEKTRİK PERAKENDE SATIŞ A.Ş.
EnvelopeIdentifier = 0AB6F45F-EC02-1EDC-80B0-DB101ADCCEA5
Status = Approved
EnvelopeStatus = CompletedSuccessfully
EnvelopeStatusCode = 1300
ExecutionDate = 8/20/2021 12:00:00 AM
PayableAmount = [PAYABLE_AMOUNT] = 87.7000
TaxTotal = 0.0000
InvoiceTipType = Sales
InvoiceTipTypeCode = 0
IsArchived = False
Vat0TaxableAmount = 0.00
Vat1 = 0.00
Vat8TaxableAmount = 0.00
Vat8 = 0.00
Vat18TaxableAmount = 0.00
Vat18 = 0.00
GetInvoiceXslt0AB6F45F-EC02-1EDC-80B0-DB0789064EA5
GetInvoiceXslt_Click Kayıt Bulundu...!
GetInvoiceXslt_Click Kayıt Bulundu...!
GetInvoiceXslt_Click UBLExtensions...: Edonusum.CrsEFatura.UBLExtensionType[]
GetInboxInvoices = 0AB6F45F-EC02-1EDC-80B0-DB0789064EA5
schemaLocation = urn:oasis:names:specification:ubl:schema:xsd:Invoice-2 UBL-Invoice-2.1.xsd
Signature = Edonusum.CrsEFatura.SignatureType1[]
UBLExtensions[].ExtensionContent.Signature.Id = xmldsig-a6c7caa3-885b-48c8-9806-55a4562a1bd8
UBLExtensions[].ExtensionContent.Signature.SignatureValue = Edonusum.CrsEFatura.ObjectType[]
1 = TURKPAK İNŞ TURİZM DIŞ TİC LTD ŞTİ 
2 = http://www.w3.org/TR/2001/REC-xml-c14n-20010315
3 = http://www.w3.org/2001/04/xmldsig-more#rsa-sha256
4 = xmldsig-a6c7caa3-885b-48c8-9806-55a4562a1bd8-ref0
5 = http://www.w3.org/2001/04/xmlenc#sha256
6 = 7
7 = 2
8 = System.Byte[]
10 = 7
Object reference not set to an instance of an object.12/12/2021 4:43:03 AM
Service is stopped at 12/12/2021 4:50:34 AM
Service is started at 12/12/2021 4:51:00 AM
W3CustomerList connection
W3CustomerList connect db
W3CustomerList select db
W3CustomerList select dr
New Invoice 
InvoiceId = [EINVOICE_ID] = ES02021000347808
DocumentId = [UUID]= 0AB6F45F-EC02-1EDC-80B0-DB0789064EA5
CreateDateUtc = 8/20/2021 7:27:22 AM
Type Code = 0
Type = [PROFILE_ID] = BaseInvoice
TargetTcknVkn = [SENDER_TAX_ID] = 3350432123
TargetTitle = [PARTY_NAME] =ENERJİSA BAŞKENT ELEKTRİK PERAKENDE SATIŞ A.Ş.
EnvelopeIdentifier = 0AB6F45F-EC02-1EDC-80B0-DB101ADCCEA5
Status = Approved
EnvelopeStatus = CompletedSuccessfully
EnvelopeStatusCode = 1300
ExecutionDate = 8/20/2021 12:00:00 AM
PayableAmount = [PAYABLE_AMOUNT] = 87.7000
TaxTotal = 0.0000
InvoiceTipType = Sales
InvoiceTipTypeCode = 0
IsArchived = False
Vat0TaxableAmount = 0.00
Vat1 = 0.00
Vat8TaxableAmount = 0.00
Vat8 = 0.00
Vat18TaxableAmount = 0.00
Vat18 = 0.00
GetInvoiceXslt0AB6F45F-EC02-1EDC-80B0-DB0789064EA5
GetInvoiceXslt_Click Kayıt Bulundu...!
GetInvoiceXslt_Click Kayıt Bulundu...!
GetInvoiceXslt_Click UBLExtensions...: Edonusum.CrsEFatura.UBLExtensionType[]
GetInboxInvoices = 0AB6F45F-EC02-1EDC-80B0-DB0789064EA5
schemaLocation = urn:oasis:names:specification:ubl:schema:xsd:Invoice-2 UBL-Invoice-2.1.xsd
Signature = Edonusum.CrsEFatura.SignatureType1[]
UBLExtensions[].ExtensionContent.Signature.Id = xmldsig-a6c7caa3-885b-48c8-9806-55a4562a1bd8
UBLExtensions[].ExtensionContent.Signature.SignatureValue = Edonusum.CrsEFatura.ObjectType[]
1 = TURKPAK İNŞ TURİZM DIŞ TİC LTD ŞTİ 
2 = http://www.w3.org/TR/2001/REC-xml-c14n-20010315
3 = http://www.w3.org/2001/04/xmldsig-more#rsa-sha256
4 = xmldsig-a6c7caa3-885b-48c8-9806-55a4562a1bd8-ref0
5 = http://www.w3.org/2001/04/xmlenc#sha256
6 = 7
7 = 2
8 = System.Byte[]
10 = 7
Object reference not set to an instance of an object.12/12/2021 4:51:03 AM
Service is recall at 12/12/2021 4:59:20 AM
Service is recall at 12/12/2021 5:07:40 AM
Service is recall at 12/12/2021 5:16:00 AM
Service is recall at 12/12/2021 5:24:20 AM
Service is recall at 12/12/2021 5:32:40 AM
Service is recall at 12/12/2021 5:41:00 AM
Service is recall at 12/12/2021 5:49:20 AM
Service is stopped at 12/12/2021 5:50:26 AM
Service is started at 12/12/2021 5:50:53 AM
W3CustomerList connection
W3CustomerList connect db
W3CustomerList select db
W3CustomerList select dr
New Invoice 
InvoiceId = [EINVOICE_ID] = ES02021000347808
DocumentId = [UUID]= 0AB6F45F-EC02-1EDC-80B0-DB0789064EA5
CreateDateUtc = 8/20/2021 7:27:22 AM
Type Code = 0
Type = [PROFILE_ID] = BaseInvoice
TargetTcknVkn = [SENDER_TAX_ID] = 3350432123
TargetTitle = [PARTY_NAME] =ENERJİSA BAŞKENT ELEKTRİK PERAKENDE SATIŞ A.Ş.
EnvelopeIdentifier = 0AB6F45F-EC02-1EDC-80B0-DB101ADCCEA5
Status = Approved
EnvelopeStatus = CompletedSuccessfully
EnvelopeStatusCode = 1300
ExecutionDate = 8/20/2021 12:00:00 AM
PayableAmount = [PAYABLE_AMOUNT] = 87.7000
TaxTotal = 0.0000
InvoiceTipType = Sales
InvoiceTipTypeCode = 0
IsArchived = False
Vat0TaxableAmount = 0.00
Vat1 = 0.00
Vat8TaxableAmount = 0.00
Vat8 = 0.00
Vat18TaxableAmount = 0.00
Vat18 = 0.00
GetInvoiceXslt0AB6F45F-EC02-1EDC-80B0-DB0789064EA5
GetInvoiceXslt_Click Kayıt Bulundu...!
GetInvoiceXslt_Click Kayıt Bulundu...!
GetInvoiceXslt_Click UBLExtensions...: Edonusum.CrsEFatura.UBLExtensionType[]
GetInboxInvoices = 0AB6F45F-EC02-1EDC-80B0-DB0789064EA5
schemaLocation = urn:oasis:names:specification:ubl:schema:xsd:Invoice-2 UBL-Invoice-2.1.xsd
Signature = Edonusum.CrsEFatura.SignatureType1[]
UBLExtensions[].ExtensionContent.Signature.Id = xmldsig-a6c7caa3-885b-48c8-9806-55a4562a1bd8
UBLExtensions[].ExtensionContent.Signature.SignatureValue = Edonusum.CrsEFatura.ObjectType[]
1 = TURKPAK İNŞ TURİZM DIŞ TİC LTD ŞTİ 
2 = http://www.w3.org/TR/2001/REC-xml-c14n-20010315
3 = http://www.w3.org/2001/04/xmldsig-more#rsa-sha256
4 = xmldsig-a6c7caa3-885b-48c8-9806-55a4562a1bd8-ref0
5 = http://www.w3.org/2001/04/xmlenc#sha256
7 = 2
Object reference not set to an instance of an object.12/12/2021 5:50:59 AM
Service is stopped at 12/12/2021 5:52:14 AM
Service is started at 12/12/2021 5:52:35 AM
W3CustomerList connection
W3CustomerList connect db
W3CustomerList select db
W3CustomerList select dr
New Invoice 
InvoiceId = [EINVOICE_ID] = ES02021000347808
DocumentId = [UUID]= 0AB6F45F-EC02-1EDC-80B0-DB0789064EA5
CreateDateUtc = 8/20/2021 7:27:22 AM
Type Code = 0
Type = [PROFILE_ID] = BaseInvoice
TargetTcknVkn = [SENDER_TAX_ID] = 3350432123
TargetTitle = [PARTY_NAME] =ENERJİSA BAŞKENT ELEKTRİK PERAKENDE SATIŞ A.Ş.
EnvelopeIdentifier = 0AB6F45F-EC02-1EDC-80B0-DB101ADCCEA5
Status = Approved
EnvelopeStatus = CompletedSuccessfully
EnvelopeStatusCode = 1300
ExecutionDate = 8/20/2021 12:00:00 AM
PayableAmount = [PAYABLE_AMOUNT] = 87.7000
TaxTotal = 0.0000
InvoiceTipType = Sales
InvoiceTipTypeCode = 0
IsArchived = False
Vat0TaxableAmount = 0.00
Vat1 = 0.00
Vat8TaxableAmount = 0.00
Vat8 = 0.00
Vat18TaxableAmount = 0.00
Vat18 = 0.00
GetInvoiceXslt0AB6F45F-EC02-1EDC-80B0-DB0789064EA5
GetInvoiceXslt_Click Kayıt Bulundu...!
GetInvoiceXslt_Click Kayıt Bulundu...!
GetInvoiceXslt_Click UBLExtensions...: Edonusum.CrsEFatura.UBLExtensionType[]
GetInboxInvoices = 0AB6F45F-EC02-1EDC-80B0-DB0789064EA5
schemaLocation = urn:oasis:names:specification:ubl:schema:xsd:Invoice-2 UBL-Invoice-2.1.xsd
Signature = Edonusum.CrsEFatura.SignatureType1[]
UBLExtensions[].ExtensionContent.Signature.Id = xmldsig-a6c7caa3-885b-48c8-9806-55a4562a1bd8
UBLExtensions[].ExtensionContent.Signature.SignatureValue = Edonusum.CrsEFatura.ObjectType[]
1 = TURKPAK İNŞ TURİZM DIŞ TİC LTD ŞTİ 
2 = http://www.w3.org/TR/2001/REC-xml-c14n-20010315
3 = http://www.w3.org/2001/04/xmldsig-more#rsa-sha256
4 = xmldsig-a6c7caa3-885b-48c8-9806-55a4562a1bd8-ref0
5 = http://www.w3.org/2001/04/xmlenc#sha256
7 = 2
Index was outside the bounds of the array.12/12/2021 5:52:39 AM
Service is stopped at 12/12/2021 5:53:30 AM
Service is started at 12/12/2021 5:53:49 AM
W3CustomerList connection
W3CustomerList connect db
W3CustomerList select db
W3CustomerList select dr
New Invoice 
InvoiceId = [EINVOICE_ID] = ES02021000347808
DocumentId = [UUID]= 0AB6F45F-EC02-1EDC-80B0-DB0789064EA5
CreateDateUtc = 8/20/2021 7:27:22 AM
Type Code = 0
Type = [PROFILE_ID] = BaseInvoice
TargetTcknVkn = [SENDER_TAX_ID] = 3350432123
TargetTitle = [PARTY_NAME] =ENERJİSA BAŞKENT ELEKTRİK PERAKENDE SATIŞ A.Ş.
EnvelopeIdentifier = 0AB6F45F-EC02-1EDC-80B0-DB101ADCCEA5
Status = Approved
EnvelopeStatus = CompletedSuccessfully
EnvelopeStatusCode = 1300
ExecutionDate = 8/20/2021 12:00:00 AM
PayableAmount = [PAYABLE_AMOUNT] = 87.7000
TaxTotal = 0.0000
InvoiceTipType = Sales
InvoiceTipTypeCode = 0
IsArchived = False
Vat0TaxableAmount = 0.00
Vat1 = 0.00
Vat8TaxableAmount = 0.00
Vat8 = 0.00
Vat18TaxableAmount = 0.00
Vat18 = 0.00
GetInvoiceXslt0AB6F45F-EC02-1EDC-80B0-DB0789064EA5
GetInvoiceXslt_Click Kayıt Bulundu...!
GetInvoiceXslt_Click Kayıt Bulundu...!
GetInvoiceXslt_Click UBLExtensions...: Edonusum.CrsEFatura.UBLExtensionType[]
GetInboxInvoices = 0AB6F45F-EC02-1EDC-80B0-DB0789064EA5
schemaLocation = urn:oasis:names:specification:ubl:schema:xsd:Invoice-2 UBL-Invoice-2.1.xsd
Signature = Edonusum.CrsEFatura.SignatureType1[]
UBLExtensions[].ExtensionContent.Signature.Id = xmldsig-a6c7caa3-885b-48c8-9806-55a4562a1bd8
UBLExtensions[].ExtensionContent.Signature.SignatureValue = Edonusum.CrsEFatura.ObjectType[]
1 = TURKPAK İNŞ TURİZM DIŞ TİC LTD ŞTİ 
2 = http://www.w3.org/TR/2001/REC-xml-c14n-20010315
3 = http://www.w3.org/2001/04/xmldsig-more#rsa-sha256
4 = xmldsig-a6c7caa3-885b-48c8-9806-55a4562a1bd8-ref0
5 = http://www.w3.org/2001/04/xmlenc#sha256
7 = 2
Index was outside the bounds of the array.12/12/2021 5:53:53 AM
Service is stopped at 12/12/2021 5:54:57 AM
Service is started at 12/12/2021 5:55:15 AM
W3CustomerList connection
W3CustomerList connect db
W3CustomerList select db
W3CustomerList select dr
New Invoice 
InvoiceId = [EINVOICE_ID] = ES02021000347808
DocumentId = [UUID]= 0AB6F45F-EC02-1EDC-80B0-DB0789064EA5
CreateDateUtc = 8/20/2021 7:27:22 AM
Type Code = 0
Type = [PROFILE_ID] = BaseInvoice
TargetTcknVkn = [SENDER_TAX_ID] = 3350432123
TargetTitle = [PARTY_NAME] =ENERJİSA BAŞKENT ELEKTRİK PERAKENDE SATIŞ A.Ş.
EnvelopeIdentifier = 0AB6F45F-EC02-1EDC-80B0-DB101ADCCEA5
Status = Approved
EnvelopeStatus = CompletedSuccessfully
EnvelopeStatusCode = 1300
ExecutionDate = 8/20/2021 12:00:00 AM
PayableAmount = [PAYABLE_AMOUNT] = 87.7000
TaxTotal = 0.0000
InvoiceTipType = Sales
InvoiceTipTypeCode = 0
IsArchived = False
Vat0TaxableAmount = 0.00
Vat1 = 0.00
Vat8TaxableAmount = 0.00
Vat8 = 0.00
Vat18TaxableAmount = 0.00
Vat18 = 0.00
GetInvoiceXslt0AB6F45F-EC02-1EDC-80B0-DB0789064EA5
GetInvoiceXslt_Click Kayıt Bulundu...!
GetInvoiceXslt_Click Kayıt Bulundu...!
GetInvoiceXslt_Click UBLExtensions...: Edonusum.CrsEFatura.UBLExtensionType[]
GetInboxInvoices = 0AB6F45F-EC02-1EDC-80B0-DB0789064EA5
schemaLocation = urn:oasis:names:specification:ubl:schema:xsd:Invoice-2 UBL-Invoice-2.1.xsd
Signature = Edonusum.CrsEFatura.SignatureType1[]
UBLExtensions[].ExtensionContent.Signature.Id = xmldsig-a6c7caa3-885b-48c8-9806-55a4562a1bd8
UBLExtensions[].ExtensionContent.Signature.SignatureValue = Edonusum.CrsEFatura.ObjectType[]
1 = TURKPAK İNŞ TURİZM DIŞ TİC LTD ŞTİ 
2 = http://www.w3.org/TR/2001/REC-xml-c14n-20010315
3 = http://www.w3.org/2001/04/xmldsig-more#rsa-sha256
4 = xmldsig-a6c7caa3-885b-48c8-9806-55a4562a1bd8-ref0
5 = http://www.w3.org/2001/04/xmlenc#sha256
7 = 2
9 = System.Object[]
10 = 7
Object reference not set to an instance of an object.12/12/2021 5:55:19 AM
