Service is recall at 12/26/2021 2:01:39 PM
Service is recall at 12/26/2021 2:09:59 PM
Service is recall at 12/26/2021 2:18:19 PM
Service is recall at 12/26/2021 2:26:39 PM
Service is recall at 12/26/2021 2:34:59 PM
Service is recall at 12/26/2021 2:43:19 PM
Service is recall at 12/26/2021 2:51:39 PM
Service is recall at 12/26/2021 2:59:59 PM
Service is recall at 12/26/2021 3:08:19 PM
Service is recall at 12/26/2021 3:16:39 PM
Service is recall at 12/26/2021 3:24:59 PM
Service is recall at 12/26/2021 3:33:19 PM
Service is recall at 12/26/2021 3:41:39 PM
Service is recall at 12/26/2021 3:49:59 PM
Service is recall at 12/26/2021 3:58:19 PM
Service is recall at 12/26/2021 4:06:39 PM
Service is recall at 12/26/2021 4:14:59 PM
Service is recall at 12/26/2021 4:23:19 PM
Service is recall at 12/26/2021 4:31:39 PM
Service is recall at 12/26/2021 4:39:59 PM
Service is recall at 12/26/2021 4:48:19 PM
Service is recall at 12/26/2021 4:56:39 PM
Service is recall at 12/26/2021 5:04:59 PM
Service is recall at 12/26/2021 5:13:19 PM
Service is recall at 12/26/2021 5:21:39 PM
Service is recall at 12/26/2021 5:29:59 PM
Service is recall at 12/26/2021 5:38:19 PM
Service is recall at 12/26/2021 5:46:39 PM
Service is recall at 12/26/2021 5:54:59 PM
Service is recall at 12/26/2021 6:03:19 PM
Service is recall at 12/26/2021 6:11:39 PM
Service is recall at 12/26/2021 6:19:59 PM
Service is recall at 12/26/2021 6:28:19 PM
Service is recall at 12/26/2021 6:36:39 PM
Service is recall at 12/26/2021 6:44:59 PM
Service is recall at 12/26/2021 6:53:19 PM
Service is recall at 12/26/2021 7:01:39 PM
Service is recall at 12/26/2021 7:09:59 PM
Service is recall at 12/26/2021 7:18:19 PM
Service is recall at 12/26/2021 7:26:39 PM
Service is recall at 12/26/2021 7:34:59 PM
Service is recall at 12/26/2021 7:43:19 PM
Service is recall at 12/26/2021 7:51:39 PM
Service is recall at 12/26/2021 7:59:59 PM
Service is recall at 12/26/2021 8:08:19 PM
Service is recall at 12/26/2021 8:16:39 PM
Service is recall at 12/26/2021 8:24:59 PM
Service is recall at 12/26/2021 8:33:19 PM
Service is recall at 12/26/2021 8:41:39 PM
Service is recall at 12/26/2021 8:49:59 PM
Service is recall at 12/26/2021 8:58:19 PM
Service is recall at 12/26/2021 9:06:39 PM
Service is recall at 12/26/2021 9:14:59 PM
Service is recall at 12/26/2021 9:23:19 PM
Service is recall at 12/26/2021 9:31:39 PM
Service is recall at 12/26/2021 9:39:59 PM
Service is recall at 12/26/2021 9:48:19 PM
Service is recall at 12/26/2021 9:56:39 PM
Service is recall at 12/26/2021 10:04:59 PM
Service is recall at 12/26/2021 10:13:19 PM
Service is recall at 12/26/2021 10:21:39 PM
Service is recall at 12/26/2021 10:29:59 PM
Service is recall at 12/26/2021 10:38:19 PM
Service is recall at 12/26/2021 10:46:39 PM
Service is recall at 12/26/2021 10:54:59 PM
Service is recall at 12/26/2021 11:03:19 PM
Service is recall at 12/26/2021 11:11:39 PM
Service is recall at 12/26/2021 11:19:59 PM
Service is recall at 12/26/2021 11:28:19 PM
Service is recall at 12/26/2021 11:36:39 PM
Service is recall at 12/26/2021 11:44:59 PM
Service is recall at 12/26/2021 11:53:19 PM
