Service is started at 11/7/2021 3:33:13 AM
W3CustomerList connection
W3CustomerList connect db
W3CustomerList select db
W3CustomerList select dr
New Invoice 
InvoiceId = [EINVOICE_ID] = MEB2021000000102
DocumentId = [UUID]= D22C7456-0FC0-4FBF-8C31-FB805AA7E738
CreateDateUtc = 8/18/2021 5:05:09 PM
Type Code = 1
Type = [PROFILE_ID] = ComercialInvoice
TargetTcknVkn = [SENDER_TAX_ID] = 6140544690
TargetTitle = [PARTY_NAME] =Memba Tekstil İç ve Dış. Tic. Ltd. Şti. 
EnvelopeIdentifier = 6932FE63-87F0-4BE1-89CE-33550BA837C2
Status = Approved
EnvelopeStatus = CompletedSuccessfully
EnvelopeStatusCode = 1300
ExecutionDate = 8/14/2021 5:53:33 PM
PayableAmount = [PAYABLE_AMOUNT] = 101538.3600
TaxTotal = 7521.3600
InvoiceTipType = Sales
InvoiceTipTypeCode = 0
IsArchived = False
Vat0TaxableAmount = 0.00
Vat1 = 0.00
Vat8TaxableAmount = 94017.00
Vat8 = 7521.36
Vat18TaxableAmount = 0.00
Vat18 = 0.00
GetInvoiceXsltD22C7456-0FC0-4FBF-8C31-FB805AA7E738
GetInvoiceXslt_Click Kayıt Bulundu...!
GetInvoiceXslt_Click Kayıt Bulundu...!
GetInvoiceXslt_Click UBLExtensions...: Edonusum.CrsEFatura.UBLExtensionType[]
GetInboxInvoices = D22C7456-0FC0-4FBF-8C31-FB805AA7E738
schemaLocation = urn:oasis:names:specification:ubl:schema:xsd:Invoice-2 UBL-Invoice-2.1.xsd
Signature = Edonusum.CrsEFatura.SignatureType1[]
UBLExtensions[].ExtensionContent.Signature.Id = Sign-Id-SignatureId-MEB2021000000102
UBLExtensions[].ExtensionContent.Signature.SignatureValue = Edonusum.CrsEFatura.ObjectType[]
1 = TURKPAK İNŞAAT TURİZM DIŞ TİCARET LİMİTED ŞİRKETİ
2 = http://www.w3.org/TR/2001/REC-xml-c14n-20010315
3 = http://www.w3.org/2001/04/xmldsig-more#rsa-sha256
Object reference not set to an instance of an object.11/7/2021 3:33:17 AM
Service is recall at 11/7/2021 3:41:33 AM
Service is recall at 11/7/2021 3:14:42 PM
Service is recall at 11/7/2021 3:23:02 PM
Service is recall at 11/7/2021 3:31:22 PM
Service is recall at 11/7/2021 3:39:42 PM
Service is recall at 11/7/2021 3:48:02 PM
Service is recall at 11/7/2021 3:56:22 PM
Service is recall at 11/7/2021 4:04:42 PM
Service is recall at 11/7/2021 4:13:02 PM
Service is recall at 11/7/2021 4:21:22 PM
Service is recall at 11/7/2021 4:29:42 PM
Service is recall at 11/7/2021 4:38:02 PM
Service is recall at 11/7/2021 4:46:22 PM
Service is recall at 11/7/2021 4:54:42 PM
Service is recall at 11/7/2021 5:03:02 PM
Service is recall at 11/7/2021 5:11:22 PM
Service is recall at 11/7/2021 5:19:42 PM
Service is recall at 11/7/2021 5:28:02 PM
Service is recall at 11/7/2021 5:36:22 PM
Service is recall at 11/7/2021 5:44:42 PM
Service is recall at 11/7/2021 5:53:02 PM
Service is recall at 11/7/2021 6:01:22 PM
Service is recall at 11/7/2021 6:09:42 PM
Service is recall at 11/7/2021 6:18:02 PM
Service is recall at 11/7/2021 6:26:22 PM
Service is recall at 11/7/2021 6:34:42 PM
Service is recall at 11/7/2021 8:08:34 PM
Service is recall at 11/7/2021 8:16:54 PM
Service is recall at 11/7/2021 8:25:14 PM
Service is recall at 11/7/2021 8:33:34 PM
Service is recall at 11/7/2021 8:41:54 PM
Service is recall at 11/7/2021 8:50:14 PM
Service is recall at 11/7/2021 8:58:34 PM
Service is recall at 11/7/2021 9:06:54 PM
Service is recall at 11/7/2021 9:15:14 PM
Service is recall at 11/7/2021 9:23:34 PM
Service is recall at 11/7/2021 9:31:54 PM
Service is recall at 11/7/2021 9:40:14 PM
Service is recall at 11/7/2021 9:48:34 PM
Service is recall at 11/7/2021 9:56:54 PM
Service is recall at 11/7/2021 10:05:14 PM
Service is recall at 11/7/2021 10:13:34 PM
Service is recall at 11/7/2021 10:21:54 PM
Service is recall at 11/7/2021 10:30:14 PM
Service is recall at 11/7/2021 10:38:34 PM
Service is recall at 11/7/2021 10:46:54 PM
Service is recall at 11/7/2021 10:55:14 PM
Service is recall at 11/7/2021 11:03:34 PM
Service is recall at 11/7/2021 11:11:54 PM
Service is recall at 11/7/2021 11:20:14 PM
Service is recall at 11/7/2021 11:28:34 PM
Service is recall at 11/7/2021 11:36:54 PM
Service is recall at 11/7/2021 11:45:14 PM
Service is recall at 11/7/2021 11:53:34 PM
