Service is recall at 11/10/2021 1:44:23 PM
Service is recall at 11/10/2021 1:52:43 PM
Service is recall at 11/10/2021 2:01:03 PM
Service is recall at 11/10/2021 2:09:23 PM
Service is recall at 11/10/2021 2:17:43 PM
Service is recall at 11/10/2021 2:26:03 PM
Service is recall at 11/10/2021 2:34:23 PM
Service is recall at 11/10/2021 2:42:43 PM
Service is recall at 11/10/2021 2:51:03 PM
Service is recall at 11/10/2021 2:59:23 PM
Service is recall at 11/10/2021 3:07:43 PM
Service is recall at 11/10/2021 3:16:03 PM
Service is recall at 11/10/2021 3:24:23 PM
Service is recall at 11/10/2021 3:32:43 PM
Service is recall at 11/10/2021 3:41:03 PM
Service is recall at 11/10/2021 3:49:23 PM
Service is recall at 11/10/2021 3:57:43 PM
Service is recall at 11/10/2021 4:06:03 PM
Service is recall at 11/10/2021 4:14:23 PM
Service is recall at 11/10/2021 4:22:43 PM
Service is recall at 11/10/2021 4:31:03 PM
Service is recall at 11/10/2021 4:39:23 PM
Service is recall at 11/10/2021 4:47:43 PM
Service is recall at 11/10/2021 4:56:03 PM
Service is recall at 11/10/2021 5:04:23 PM
Service is recall at 11/10/2021 5:12:43 PM
Service is recall at 11/10/2021 5:21:03 PM
Service is recall at 11/10/2021 5:29:23 PM
Service is recall at 11/10/2021 5:37:43 PM
Service is recall at 11/10/2021 5:46:03 PM
Service is recall at 11/10/2021 5:54:23 PM
Service is recall at 11/10/2021 6:02:43 PM
Service is recall at 11/10/2021 6:11:03 PM
Service is recall at 11/10/2021 6:19:23 PM
Service is recall at 11/10/2021 6:27:43 PM
Service is recall at 11/10/2021 6:36:03 PM
Service is recall at 11/10/2021 6:44:23 PM
Service is recall at 11/10/2021 6:52:43 PM
Service is recall at 11/10/2021 7:01:03 PM
Service is recall at 11/10/2021 7:09:23 PM
Service is recall at 11/10/2021 7:17:43 PM
Service is recall at 11/10/2021 7:26:03 PM
Service is recall at 11/10/2021 7:34:23 PM
Service is recall at 11/10/2021 7:42:43 PM
Service is recall at 11/10/2021 7:51:03 PM
Service is recall at 11/10/2021 7:59:23 PM
Service is recall at 11/10/2021 8:07:43 PM
Service is recall at 11/10/2021 8:16:03 PM
Service is recall at 11/10/2021 8:24:23 PM
Service is recall at 11/10/2021 8:32:43 PM
Service is recall at 11/10/2021 8:41:03 PM
Service is recall at 11/10/2021 8:49:23 PM
Service is recall at 11/10/2021 8:57:43 PM
Service is recall at 11/10/2021 9:06:03 PM
Service is recall at 11/10/2021 9:14:23 PM
Service is recall at 11/10/2021 9:22:43 PM
Service is recall at 11/10/2021 9:31:03 PM
Service is recall at 11/10/2021 9:39:23 PM
Service is recall at 11/10/2021 9:47:43 PM
Service is recall at 11/10/2021 9:56:03 PM
Service is recall at 11/10/2021 10:04:23 PM
Service is recall at 11/10/2021 10:12:43 PM
Service is recall at 11/10/2021 10:21:03 PM
Service is recall at 11/10/2021 10:29:24 PM
Service is recall at 11/10/2021 10:37:44 PM
Service is recall at 11/10/2021 10:46:04 PM
Service is recall at 11/10/2021 10:54:23 PM
Service is recall at 11/10/2021 11:02:43 PM
Service is recall at 11/10/2021 11:11:03 PM
Service is recall at 11/10/2021 11:19:23 PM
Service is recall at 11/10/2021 11:27:43 PM
Service is recall at 11/10/2021 11:36:03 PM
Service is recall at 11/10/2021 11:44:23 PM
Service is recall at 11/10/2021 11:52:43 PM
